Location/Bldg/Business,Back- ground,Ambient Sound,CTL/ Factoid,Mini-Game,Coupon/ Offer,Virt Econ/ Merch,Hidden Object,Data,Activation Point,Overlay Media,Ambient Sound,Mini-Game,Coupon/ Offer,Virt Econ/ Merch,Data,Notes,,,,Latitude,Longitude
Pensacola Beach Toll Bridge,,,,,,,,,,,,,,,,,,,,,
Pensacola Beach Bridge Toll Booth,,,,,,,,,,,,,,,,,,,,,
The Grand Marlin,,,,,,,,,X,X,,,,,,"Act Pt:30.34426177237035, -87.14968422568592",,,,30.3442617723703,-87.1496842256859
Radical Rides,,,,,,,,,X,X,,,X,,,"30.341034393342284, -87.14738973345675",,,,30.3410343933422,-87.1473897334567
Laguna's Beach Bar & Grill,,,,,,,,,X,X,,,X,,,"Act Pt: 30.340518930548395, -87.14692472441564",,,,30.3405189305483,-87.1469247244156
Water Tanks (Emerald Coast Utilities Authority),,,,,,,,,,,,,,,,,,,,,
Aloha Wine & Liquor,,,,,,,,,,,,,,,,,,,,,
Pier One Marina,,,,,,,,,X,X,,,X,,,"Act Pt: 30.336617024870478, -87.1450493667029",,,,30.3366170248704,-87.1450493667029
Elk's Lodge,,,,,,,,,,,,,,,,,,,,,
Shaggy's Pensacola Beach,,,,,,,,,,,,,,,,,,,,,
Frisky Dolphin Sunset Oyster Bar & Grill,,,,,,,,,X,X,,,X,,,"Act Pt: 30.334957973178774, -87.14390651383026",,,,30.3349579731787,-87.1439065138302
Verandas Exclusive Island Residence,,,,,,,,,,,,,,,,,,,,,
Resortquest by Wyndham Vacation Rentals,,,,,,,,,,,,,,,,,,,,,
Cafe NOLA,,,,,,,,,X,X,,,,,,"Act Pt: 30.33604600922632, -87.14363011993292",,,,30.3360460092263,-87.1436301199329
Key Sailing,,,,,,,,,X,X,,,X,,,"Act Pt: 30.3360331463739, -87.1432787816525",,,,30.3360331463739,-87.1432787816525
Pensacola Beach Boardwalk,,,,,,,,,,,,,,,,,,,,,
Felix's Restaurant & Oyster Bar,,,,,,,,,,,,,,,,,,,,,
Hooters,,,,,,,,,,,,,,,,,,,,,
Bamboo Willie's,,,,,,,,,,,,,,,,,,,,,
Intracoastal Outfitters,,,,,,,,,,,,,,,,,,,,,
Ron Jon Surf Shop (Men's),,,,,,,,,,,,,,,,,,,,,
Ardor Boutique,,,,,,,,,,,,,,,,,,,,,
Envie Boutique,,,,,,,,,,,,,,,,,,,,,
Papa's Pizza,,,,,,,,,,,,,,,,,,,,,
Kilwins,,,,,,,,,,,,,,,,,,,,,
Ardor Boutique,,,,,,,,,,,,,,,,,,,,,
Ron Jon Surf Shop (Women's and Children),,,,,,,,,X,X,,,X,,,"Act Pt: 30.33485003358185, -87.14140876120692",,,,30.3348500335818,-87.1414087612069
Pensacola Bay Cruises,,,,,,,,,,,,,,,,,,,,,
Premier Dolphin Cruise,,,,,,,,,X,X,,,X,,,,,,,,
Pensacola Beach Boardwalk Amphitheatre,,,,,,,,,X,X,,,,,,"Act Pt: 30.335136069281095, -87.14153459455201",,,,30.3351360692810,-87.1415345945520
Alvin's Island,,,,,,,,,X,X,,,X,,,"Act Pt: 30.33433146516659, -87.14136131729312",,,,30.3343314651665,-87.1413613172931
Circle K,,,,,,,,,,,,,,,,,,,,,
Flounders Chowder House (Front),,,,,,,,,X,X,,,X,,,"Act Pt #1 (Front): 30.333988340507123, -87.14018485969024 ",,,,30.3339883405071,-87.1401848596902
Flounders Chowder House (Back),,,,,,,,,X,X,,,X,,,"Act Pt #2 (Back):  30.3344872176558, -87.13946189899946",,,,30.3344872176558,-87.13946189899940
Santa Rosa Island Authority,,,,,,,,,,,,,,,,,,,,,
Alvin's Island (Via De Luna),,,,,,,,,X,X,,,X,,,"Act Pt: 30.33405518855435, -87.13817726813575",,,,30.3340551885543,-87.1381772681357
Red Fish Blue Fish (Front),,,,,,,,,X,X,,,X,,,"Act Pt #1 (Front): 30.33455894959407, -87.1381674099415",,,,30.334558949594,-87.1381674099415
Red Fish Blue Fish (Back),,,,,,,,,X,X,,,X,,,"Act Pt #2 (Back): 30.334667774128715, -87.1385088610585",,,,30.3346677741287,-87.1385088610585
Water Pig BBQ,,,,,,,,,X,X,,,X,,,"Act Pt: 30.33472008662028, -87.13783036451646",,,,30.3347200866202,-87.1378303645164
Strip Retail,,,,,,,,,,,,,,,,,,,,,
DeLuna Beach Grille,,,,,,,,,,,,,,,,,,,,,
Fusion Spa & Salon,,,,,,,,,,,,,,,,,,,,,
The Fun Store,,,,,,,,,,,,,,,,,,,,,
Ice Cream Shop,,,,,,,,,,,,,,,,,,,,,
Shrimp Basket,,,,,,,,,X,X,,,X,,,"Act Pt: 30.334151266344755, -87.13733744965322",,,,30.3341512663447,-87.1373374496532
Pensacola Beach RV Resort,,,,,,,,,,,,,,,,,,,,,
Paradise Inn,,,,,,,,,,,,,,,,,,,,,
Paradise Bar & Grill,,,,,,,,,,,,,,,,,,,,,
"Strip Retail, Real Estate & Restaurants",,,,,,,,,,,,,,,,,,,,,
Gap,,,,,,,,,,,,,,,,,,,,,
Portofino Island Resort,,,,,,,,,,,,,,,,,,,,,
Villas on the Beach Condos,,,,,,,,,,,,,,,,,,,,,
Regency Towers Condos,,,,,,,,,,,,,,,,,,,,,
Regency Cabanas,,,,,,,,,,,,,,,,,,,,,
Pensacola Beach Getaways,,,,,,,,,,,,,,,,,,,,,
SpringHill Suites by Marriott Pensacola Beach,,,,,,,,,,,,,,,,,,,,,
Emerald Isle Resort Condominium by Vacasa,,,,,,,,,,,,,,,,,,,,,
Beach Club Resort & Spa,,,,,,,,,,,,,,,,,,,,,
Best Western Beachside Resort,,,,,,,,,,,,,,,,,,,,,
Holiday Inn Resort Pensacola Beach (Front),,,,,,,,,X,X,,,X,,,"Act Pt: 30.333019090882697, -87.13595608367966",,,,30.3330190908826,-87.1359560836796
Holiday Inn Resort Pensacola Beach (Lazy River),,,,,,,,,X,X,,,X,,,"Act Pt: 30.332413273702716, -87.13583480229467",,,,30.3324132737027,-87.1358348022946
Riptides Grill & Tiki Bar,,,,,,,,,X,X,,,X,,,"Act Pt: 30.33238974104988, -87.13622998263232",,,,30.3323897410498,-87.1362299826323
Hilton Pensacola Beach (Front),,,,,,,,,X,X,,,X,,,"Act Pt: 30.33292755820658, -87.13731469116281 ",,,,30.3329275582065,-87.137314691163
Hilton Pensacola Beach (Back),,,,,,,,,X,X,,,X,,,"Act Pt: 30.332494074355882, -87.13726744749977",,,,30.3324940743558,-87.1372674474997
Hilton Pensacola Beach (Beach),,,,,,,,,X,X,,,X,,,"Act Pt: 30.331782149067873, -87.13699775170889",,,,30.3317821490678,-87.1369977517088
Bonsai Sushi,,,,,,,,,,,,,,,,,,,,,
H2O,,,,,,,,,,,,,,,,,,,,,
Sal de Mar,,,,,,,,,X,X,,,X,,,"Act Pt: 30.332220308361087, -87.13687788159166",,,,30.3322203083610,-87.136877881592
Hampton Inn Pensacola Beach (Front),,,,,,,,,X,X,,,X,,,"Act Pt: 30.332352373657876, -87.1383620506185",,,,30.3323523736578,-87.1383620506185
Hampton Inn Pensacola Beach (Back),,,,,,,,,X,X,,,X,,,"Act Pt: 30.332120850173553, -87.13818136714941",,,,30.3321208501735,-87.1381813671494
Hampton Inn Pensacola Beach (Beach),,,,,,,,,X,X,,,X,,,"Act Pt: 30.33177299234842, -87.13822672358603",,,,30.3317729923484,-87.138226723586
UFO Golf (Front),,,,,,,,,X,X,,,X,,,"Act Pt: 30.33340102296615, -87.13903047099011",,,,30.3334010229661,-87.1390304709901
UFO Golf (Back),,,,,,,,,X,X,,,X,,,"Act Pt: 30.33238554982853, -87.13901656521801",,,,30.3323855498285,-87.139016565218
Sidelines Sports Bar & Restaurant,,,,,,,,,,,,,,,,,,,,,
Sandshaker Lounge,,,,,,,,,,,,,,,,,,,,,
Surf & Sand Hotel (Front),,,,,,,,,X,X,,,X,,,"Act Pt: 30.332483984694232, -87.1426441911604",,,,30.3324839846942,-87.1426441911604
Surf & Sand Hotel (Back),,,,,,,,,X,X,,,X,,,"Act Pt: 30.333366114885397, -87.14347596162143",,,,30.3333661148853,-87.1434759616214
Pensacola Beach Chamber of Commerce/Visitor Center,,,,,,,,,X,X,,,X,,,"Act Pt: 30.33313903596037, -87.14099997416093",,,,30.333139035960,-87.140999974161
Pensacola Beach Water Tower,,,,,,,,,X,X,,,X,,,"Act Pt: 30.332343017259348, -87.1414314718132",,,,30.332343017259,-87.1414314718132
Crabs on the Beach (Front),,,,,,,,,X,X,,,X,,,"Act Pt: 30.332096868005074, -87.13961370247848",,,,30.332096868005,-87.1396137024784
Crabs on the Beach (Back),,,,,,,,,X,,,,,,,"Act Pt: 30.3317381190039, -87.1394058759375",,,,30.3317381190039,-87.1394058759375
The Dock,,,,,,,,,X,X,,,,,,"Act Pt: 30.3318472100911, -87.14014354484685",,,,30.3318472100911,-87.1401435448468
The Stand,,,,,,,,,,,,,,,,,,,,,
Pavilion,,,,,,,,,X,X,,,X,,,"Act Pt: 30.331522769854228, -87.14100084925728",,,,30.3315227698542,-87.1410008492572
Pensacola Beach Public Safety Building,,,,,,,,,,,,,,,,,,,,,
Casino Beach Bar & Grille,,,,,,,,,,,,,,,,,,,,,
Drift,,,,,,,,,,,,,,,,,,,,,
Pensacola Beach Gulf Pier,,,,,,,,,X,X,,,,,,"Act Pt: 30.33057399236358, -87.14262453379247",,,,30.3305739923635,-87.1426245337924
Escambia County Sheriff's Department Substation,,,,,,,,,,,,,,,,,,,,,
Landshark Landing Beach Bar & Grill,,,,,,,,,,,,,,,,,,,,,
Margaritaville Beach Hotel,,,,,,,,,,,,,,,,,,,,,
Holiday Inn Express Pensacola Beach,,,,,,,,,,,,,,,,,,,,,
Glow Paddle,,,,,,,,,,,,,,,,,,,,,
Sabine Yacht and Racquet Club,,,,,,,,,,,,,,,,,,,,,
White Sands Pensacola Beach,,,,,,,,,,,,,,,,,,,,,
Sea Horse Condominium,,,,,,,,,,,,,,,,,,,,,
Gulf Life Vacations,,,,,,,,,,,,,,,,,,,,,
Sans Souci Condominiums,,,,,,,,,,,,,,,,,,,,,
Portside Villas,,,,,,,,,,,,,,,,,,,,,
Surfside Properties,,,,,,,,,,,,,,,,,,,,,
Tristan Towers,,,,,,,,,,,,,,,,,,,,,
Baywatch Condominiums,,,,,,,,,,,,,,,,,,,,,
Boardwalk Condominiums,,,,,,,,,,,,,,,,,,,,,
Peg Leg Pete's,,,,,,,,,,,,,,,,,,,,,
Santa Rosa Dunes,,,,,,,,,,,,,,,,,,,,,
Santa Rosa Towers,,,,,,,,,,,,,,,,,,,,,
Villa Sabine Townhouse,,,,,,,,,,,,,,,,,,,,,
Sabine Yacht and Racquet Club,,,,,,,,,,,,,,,,,,,,,
Fort Pickens,,,,,,,,,,,,,,,,,,,,,
Sabine Point,,,,,,,,,,,,,,,,,,,,,