[api-updater (non-obsolete-error-filter)] 4/24/2022 7:44:22 PM : Starting D:/unityhub/2020.3.32f1/Editor/Data/Tools/ScriptUpdater/APIUpdater.NonObsoleteApiUpdaterDetector.exe
[api-updater (non-obsolete-error-filter)] 
----------------------------------
jit/startup time      : 1392.6707ms
moved types parse time: 48ms
candidates parse time : 0ms
C# parse time         : 1001ms
candidates check time : 41ms
console write time    : 0ms

[api-updater (non-obsolete-error-filter)] 4/24/2022 8:21:03 PM : Starting D:/unityhub/2020.3.32f1/Editor/Data/Tools/ScriptUpdater/APIUpdater.NonObsoleteApiUpdaterDetector.exe
[api-updater (non-obsolete-error-filter)] 
----------------------------------
jit/startup time      : 590.5142ms
moved types parse time: 49ms
candidates parse time : 1ms
C# parse time         : 156ms
candidates check time : 35ms
console write time    : 0ms

[api-updater (non-obsolete-error-filter)] 4/24/2022 8:25:12 PM : Starting D:/unityhub/2020.3.32f1/Editor/Data/Tools/ScriptUpdater/APIUpdater.NonObsoleteApiUpdaterDetector.exe
[api-updater (non-obsolete-error-filter)] 
----------------------------------
jit/startup time      : 78.7912ms
moved types parse time: 50ms
candidates parse time : 1ms
C# parse time         : 157ms
candidates check time : 36ms
console write time    : 0ms

[api-updater (non-obsolete-error-filter)] 4/24/2022 8:25:22 PM : Starting D:/unityhub/2020.3.32f1/Editor/Data/Tools/ScriptUpdater/APIUpdater.NonObsoleteApiUpdaterDetector.exe
[api-updater (non-obsolete-error-filter)] 
----------------------------------
jit/startup time      : 67.7948ms
moved types parse time: 46ms
candidates parse time : 1ms
C# parse time         : 158ms
candidates check time : 39ms
console write time    : 0ms

[api-updater (non-obsolete-error-filter)] 4/24/2022 8:26:44 PM : Starting D:/unityhub/2020.3.32f1/Editor/Data/Tools/ScriptUpdater/APIUpdater.NonObsoleteApiUpdaterDetector.exe
[api-updater (non-obsolete-error-filter)] 
----------------------------------
jit/startup time      : 78.6015ms
moved types parse time: 46ms
candidates parse time : 1ms
C# parse time         : 156ms
candidates check time : 35ms
console write time    : 0ms

[api-updater (non-obsolete-error-filter)] 4/24/2022 8:57:13 PM : Starting D:/unityhub/2020.3.32f1/Editor/Data/Tools/ScriptUpdater/APIUpdater.NonObsoleteApiUpdaterDetector.exe
[api-updater (non-obsolete-error-filter)] 
----------------------------------
jit/startup time      : 65.999ms
moved types parse time: 47ms
candidates parse time : 1ms
C# parse time         : 155ms
candidates check time : 36ms
console write time    : 0ms

[api-updater (non-obsolete-error-filter)] 4/24/2022 11:01:45 PM : Starting D:/unityhub/2020.3.32f1/Editor/Data/Tools/ScriptUpdater/APIUpdater.NonObsoleteApiUpdaterDetector.exe
[api-updater (non-obsolete-error-filter)] 
----------------------------------
jit/startup time      : 178.3853ms
moved types parse time: 52ms
candidates parse time : 1ms
C# parse time         : 186ms
candidates check time : 39ms
console write time    : 0ms

[api-updater (non-obsolete-error-filter)] 4/24/2022 11:02:27 PM : Starting D:/unityhub/2020.3.32f1/Editor/Data/Tools/ScriptUpdater/APIUpdater.NonObsoleteApiUpdaterDetector.exe
[api-updater (non-obsolete-error-filter)] Exception caught while loading types from D:\Users\elliot\Documents\GitHub\csv-parse\Library\ScriptAssemblies\Unity.CollabProxy.Editor.dll (some types may not be loaded)
	Exception of type 'System.Reflection.ReflectionTypeLoadException' was thrown.
	  at (wrapper managed-to-native) System.Reflection.Assembly.GetTypes(System.Reflection.Assembly,bool)
  at System.Reflection.Assembly.GetTypes () [0x00000] in <695d1cc93cca45069c528c15c9fdd749>:0 
  at APIUpdater.NonObsoleteApiUpdaterDetector.ExtraInfoParser+<LoadTypesWithMovedFromAttributeAsync>d__3.MoveNext () [0x000c8] in <68bff7873e0e4aa69a14dfc30bebbe3e>:0 
	Could not load file or assembly 'UnityEditor.CoreModule, Version=0.0.0.0, Culture=neutral, PublicKeyToken=null' or one of its dependencies.

[api-updater (non-obsolete-error-filter)] Exception caught while loading types from D:\Users\elliot\Documents\GitHub\csv-parse\Library\ScriptAssemblies\Unity.TextMeshPro.Editor.dll (some types may not be loaded)
	Exception of type 'System.Reflection.ReflectionTypeLoadException' was thrown.
	  at (wrapper managed-to-native) System.Reflection.Assembly.GetTypes(System.Reflection.Assembly,bool)
  at System.Reflection.Assembly.GetTypes () [0x00000] in <695d1cc93cca45069c528c15c9fdd749>:0 
  at APIUpdater.NonObsoleteApiUpdaterDetector.ExtraInfoParser+<LoadTypesWithMovedFromAttributeAsync>d__3.MoveNext () [0x000c8] in <68bff7873e0e4aa69a14dfc30bebbe3e>:0 
	Could not load file or assembly 'UnityEditor.CoreModule, Version=0.0.0.0, Culture=neutral, PublicKeyToken=null' or one of its dependencies.

[api-updater (non-obsolete-error-filter)] 
----------------------------------
jit/startup time      : 85.7693ms
moved types parse time: 57ms
candidates parse time : 1ms
C# parse time         : 239ms
candidates check time : 48ms
console write time    : 0ms

[api-updater (non-obsolete-error-filter)] 4/24/2022 11:03:32 PM : Starting D:/unityhub/2020.3.32f1/Editor/Data/Tools/ScriptUpdater/APIUpdater.NonObsoleteApiUpdaterDetector.exe
[api-updater (non-obsolete-error-filter)] Exception caught while loading types from D:\Users\elliot\Documents\GitHub\csv-parse\Library\ScriptAssemblies\Unity.CollabProxy.Editor.dll (some types may not be loaded)
	Exception of type 'System.Reflection.ReflectionTypeLoadException' was thrown.
	  at (wrapper managed-to-native) System.Reflection.Assembly.GetTypes(System.Reflection.Assembly,bool)
  at System.Reflection.Assembly.GetTypes () [0x00000] in <695d1cc93cca45069c528c15c9fdd749>:0 
  at APIUpdater.NonObsoleteApiUpdaterDetector.ExtraInfoParser+<LoadTypesWithMovedFromAttributeAsync>d__3.MoveNext () [0x000c8] in <68bff7873e0e4aa69a14dfc30bebbe3e>:0 
	Could not load file or assembly 'UnityEditor.CoreModule, Version=0.0.0.0, Culture=neutral, PublicKeyToken=null' or one of its dependencies.

[api-updater (non-obsolete-error-filter)] Exception caught while loading types from D:\Users\elliot\Documents\GitHub\csv-parse\Library\ScriptAssemblies\Unity.TextMeshPro.Editor.dll (some types may not be loaded)
	Exception of type 'System.Reflection.ReflectionTypeLoadException' was thrown.
	  at (wrapper managed-to-native) System.Reflection.Assembly.GetTypes(System.Reflection.Assembly,bool)
  at System.Reflection.Assembly.GetTypes () [0x00000] in <695d1cc93cca45069c528c15c9fdd749>:0 
  at APIUpdater.NonObsoleteApiUpdaterDetector.ExtraInfoParser+<LoadTypesWithMovedFromAttributeAsync>d__3.MoveNext () [0x000c8] in <68bff7873e0e4aa69a14dfc30bebbe3e>:0 
	Could not load file or assembly 'UnityEditor.CoreModule, Version=0.0.0.0, Culture=neutral, PublicKeyToken=null' or one of its dependencies.

[api-updater (non-obsolete-error-filter)] 
----------------------------------
jit/startup time      : 76.5853ms
moved types parse time: 55ms
candidates parse time : 1ms
C# parse time         : 213ms
candidates check time : 44ms
console write time    : 0ms

[api-updater (non-obsolete-error-filter)] 4/24/2022 11:10:19 PM : Starting D:/unityhub/2020.3.32f1/Editor/Data/Tools/ScriptUpdater/APIUpdater.NonObsoleteApiUpdaterDetector.exe
[api-updater (non-obsolete-error-filter)] 
----------------------------------
jit/startup time      : 75.796ms
moved types parse time: 55ms
candidates parse time : 1ms
C# parse time         : 180ms
candidates check time : 39ms
console write time    : 0ms

[api-updater (non-obsolete-error-filter)] 4/24/2022 11:11:09 PM : Starting D:/unityhub/2020.3.32f1/Editor/Data/Tools/ScriptUpdater/APIUpdater.NonObsoleteApiUpdaterDetector.exe
[api-updater (non-obsolete-error-filter)] 
----------------------------------
jit/startup time      : 76.7935ms
moved types parse time: 54ms
candidates parse time : 1ms
C# parse time         : 181ms
candidates check time : 40ms
console write time    : 0ms

[api-updater (non-obsolete-error-filter)] 4/25/2022 12:11:44 AM : Starting D:/unityhub/2020.3.32f1/Editor/Data/Tools/ScriptUpdater/APIUpdater.NonObsoleteApiUpdaterDetector.exe
[api-updater (non-obsolete-error-filter)] 
----------------------------------
jit/startup time      : 82.2648ms
moved types parse time: 47ms
candidates parse time : 1ms
C# parse time         : 168ms
candidates check time : 29ms
console write time    : 0ms

[api-updater (non-obsolete-error-filter)] 4/25/2022 12:15:58 AM : Starting D:/unityhub/2020.3.32f1/Editor/Data/Tools/ScriptUpdater/APIUpdater.NonObsoleteApiUpdaterDetector.exe
[api-updater (non-obsolete-error-filter)] 
----------------------------------
jit/startup time      : 70.7687ms
moved types parse time: 46ms
candidates parse time : 1ms
C# parse time         : 170ms
candidates check time : 29ms
console write time    : 0ms

[api-updater (non-obsolete-error-filter)] 4/25/2022 12:17:47 AM : Starting D:/unityhub/2020.3.32f1/Editor/Data/Tools/ScriptUpdater/APIUpdater.NonObsoleteApiUpdaterDetector.exe
[api-updater (non-obsolete-error-filter)] 
----------------------------------
jit/startup time      : 68.4233ms
moved types parse time: 45ms
candidates parse time : 1ms
C# parse time         : 168ms
candidates check time : 28ms
console write time    : 0ms

[api-updater (non-obsolete-error-filter)] 4/25/2022 12:18:21 AM : Starting D:/unityhub/2020.3.32f1/Editor/Data/Tools/ScriptUpdater/APIUpdater.NonObsoleteApiUpdaterDetector.exe
[api-updater (non-obsolete-error-filter)] 
----------------------------------
jit/startup time      : 69.8141ms
moved types parse time: 46ms
candidates parse time : 1ms
C# parse time         : 179ms
candidates check time : 29ms
console write time    : 0ms

